<?xml version="1.0" encoding="UTF-8" standalone="no"?>
<!-- Created with Inkscape (http://www.inkscape.org/) -->

<svg
   xmlns:dc="http://purl.org/dc/elements/1.1/"
   xmlns:cc="http://creativecommons.org/ns#"
   xmlns:rdf="http://www.w3.org/1999/02/22-rdf-syntax-ns#"
   xmlns:svg="http://www.w3.org/2000/svg"
   xmlns="http://www.w3.org/2000/svg"
   xmlns:sodipodi="http://sodipodi.sourceforge.net/DTD/sodipodi-0.dtd"
   xmlns:inkscape="http://www.inkscape.org/namespaces/inkscape"
   width="727.32562"
   height="874.36273"
   id="svg3290"
   version="1.1"
   inkscape:version="0.92.2 (5c3e80d, 2017-08-06)"
   sodipodi:docname="opensource.svg"
   inkscape:export-filename="/home/rafael/workspace/logo-osi/5/png/logo396x412.png"
   inkscape:export-xdpi="52.737835"
   inkscape:export-ydpi="52.737835"
   viewBox="0 0 681.86775 819.71506">
  <defs
     id="defs3292" />
  <sodipodi:namedview
     id="base"
     pagecolor="#ffffff"
     bordercolor="#666666"
     borderopacity="1.0"
     inkscape:pageopacity="0.0"
     inkscape:pageshadow="2"
     inkscape:zoom="0.35"
     inkscape:cx="-321.34347"
     inkscape:cy="-148.21809"
     inkscape:document-units="px"
     inkscape:current-layer="g46661"
     showgrid="false"
     inkscape:window-width="1869"
     inkscape:window-height="1025"
     inkscape:window-x="51"
     inkscape:window-y="27"
     inkscape:window-maximized="1"
     showguides="true"
     inkscape:guide-bbox="true"
     fit-margin-top="0"
     fit-margin-left="0"
     fit-margin-right="0"
     fit-margin-bottom="0">
    <sodipodi:guide
       orientation="1,0"
       position="336.51041,77.302299"
       id="guide3004"
       inkscape:locked="false" />
  </sodipodi:namedview>
  <metadata
     id="metadata3295">
    <rdf:RDF>
      <cc:Work
         rdf:about="">
        <dc:format>image/svg+xml</dc:format>
        <dc:type
           rdf:resource="http://purl.org/dc/dcmitype/StillImage" />
        <dc:title></dc:title>
      </cc:Work>
    </rdf:RDF>
  </metadata>
  <g
     inkscape:label="Layer 1"
     inkscape:groupmode="layer"
     id="layer1"
     transform="translate(-29.038553,-108.23443)">
    <g
       id="g46661">
      <path
         inkscape:export-ydpi="48.18"
         inkscape:export-xdpi="48.18"
         inkscape:export-filename="/home/rafael/workspace/logo-osi/3/png/logo396x412.png"
         id="path3773"
         d="m 382.50248,399.47692 m 34.80559,90.6655 a 97.113838,97.113838 0 1 0 -69.61119,0 L 282.281,660.59662 a 279.68785,279.68785 0 1 1 200.44296,0 z"
         inkscape:connector-curvature="0"
         style="text-anchor:middle;fill:#3fa652;stroke:#21552a;stroke-width:23.30732155;stroke-linejoin:round" />
      <text
         inkscape:export-filename="/home/rafael/workspace/logo-osi/3/png/logo396x412.png"
         inkscape:export-ydpi="48.18"
         inkscape:export-xdpi="48.18"
         id="text7890-3-1"
         y="767.58331"
         x="29.319672"
         style="font-style:normal;font-weight:normal;font-size:37.92908859px;line-height:12.5px;font-family:sans-serif;-inkscape-font-specification:Sans;letter-spacing:0px;word-spacing:0px;display:inline;fill:#20552a;fill-opacity:1;stroke:none;stroke-width:3.1607573"
         xml:space="preserve"
         transform="scale(0.99041193,1.0096809)"><tspan
           id="tspan3306"
           style="font-style:normal;font-variant:normal;font-weight:normal;font-stretch:normal;font-size:111.11712646px;line-height:12.5px;font-family:OpenSymbol;-inkscape-font-specification:Sans;fill:#000000;fill-opacity:1;stroke-width:3.1607573"
           y="767.58331"
           x="29.319672"
           sodipodi:role="line">open</tspan><tspan
           id="tspan3294-7"
           style="font-style:normal;font-variant:normal;font-weight:normal;font-stretch:normal;font-size:111.11712646px;line-height:12.5px;font-family:FreeSans;-inkscape-font-specification:Sans;fill:#000000;fill-opacity:1;stroke-width:3.1607573"
           y="803.5658"
           x="29.319672"
           sodipodi:role="line"> </tspan><tspan
           id="tspan7894-2-9"
           style="font-weight:normal;font-size:111.11712646px;line-height:12.5px;font-family:sans-serif;-inkscape-font-specification:Sans;fill:#20552a;fill-opacity:1;stroke-width:3.1607573"
           y="835.07751"
           x="29.319672"
           sodipodi:role="line"> </tspan></text>
      <text
         inkscape:export-filename="/home/rafael/workspace/logo-osi/3/png/logo396x412.png"
         inkscape:export-ydpi="48.18"
         inkscape:export-xdpi="48.18"
         id="text7890-3-1-1"
         y="765.59766"
         x="354.32486"
         style="font-style:normal;font-weight:normal;font-size:37.92908859px;line-height:9.375px;font-family:sans-serif;-inkscape-font-specification:Sans;letter-spacing:0px;word-spacing:0px;display:inline;fill:#20552a;fill-opacity:1;stroke:none;stroke-width:3.1607573"
         xml:space="preserve"
         transform="scale(0.99041193,1.0096809)"><tspan
           id="tspan3306-2"
           style="font-style:normal;font-variant:normal;font-weight:normal;font-stretch:normal;font-size:111.11712646px;line-height:9.375px;font-family:OpenSymbol;-inkscape-font-specification:Sans;fill:#000000;fill-opacity:1;stroke-width:3.1607573"
           y="765.59766"
           x="354.32486"
           sodipodi:role="line">source</tspan><tspan
           id="tspan3294-7-9"
           style="font-style:normal;font-variant:normal;font-weight:normal;font-stretch:normal;font-size:111.11712646px;line-height:9.375px;font-family:FreeSans;-inkscape-font-specification:Sans;fill:#000000;fill-opacity:1;stroke-width:3.1607573"
           y="798.45514"
           x="354.32486"
           sodipodi:role="line"> </tspan><tspan
           id="tspan7894-2-9-4"
           style="font-weight:normal;font-size:111.11712646px;line-height:9.375px;font-family:sans-serif;-inkscape-font-specification:Sans;fill:#20552a;fill-opacity:1;stroke-width:3.1607573"
           y="826.84186"
           x="354.32486"
           sodipodi:role="line"> </tspan></text>
      <text
         inkscape:export-filename="/home/rafael/workspace/logo-osi/3/png/logo396x412.png"
         inkscape:export-ydpi="48.18"
         inkscape:export-xdpi="48.18"
         id="text7890-3-1-1-4"
         y="876.55804"
         x="137.63387"
         style="font-style:normal;font-weight:normal;font-size:37.92908859px;line-height:0px;font-family:sans-serif;-inkscape-font-specification:Sans;letter-spacing:0px;word-spacing:0px;display:inline;fill:#20552a;fill-opacity:1;stroke:none;stroke-width:3.1607573"
         xml:space="preserve"
         transform="scale(0.99041193,1.0096809)"><tspan
           id="tspan3306-2-7"
           style="font-style:normal;font-variant:normal;font-weight:normal;font-stretch:normal;font-size:111.11712646px;line-height:0px;font-family:OpenSymbol;-inkscape-font-specification:Sans;fill:#000000;fill-opacity:1;stroke-width:3.1607573"
           y="876.55804"
           x="137.63387"
           sodipodi:role="line">initiative</tspan><tspan
           id="tspan3294-7-9-2"
           style="font-style:normal;font-variant:normal;font-weight:normal;font-stretch:normal;font-size:111.11712646px;line-height:0px;font-family:FreeSans;-inkscape-font-specification:Sans;fill:#000000;fill-opacity:1;stroke-width:3.1607573"
           y="900.04053"
           x="137.63387"
           sodipodi:role="line"> </tspan><tspan
           id="tspan7894-2-9-4-5"
           style="font-weight:normal;font-size:111.11712646px;line-height:0px;font-family:sans-serif;-inkscape-font-specification:Sans;fill:#20552a;fill-opacity:1;stroke-width:3.1607573"
           y="919.05225"
           x="137.63387"
           sodipodi:role="line"> </tspan></text>
      <g
         id="g3797"
         transform="matrix(3.1607572,0,0,3.1607572,1222.7143,2826.7457)"
         inkscape:export-filename="/home/rafael/workspace/logo-osi/3/png/logo396x412.png"
         inkscape:export-xdpi="48.18"
         inkscape:export-ydpi="48.18">
        <ellipse
           transform="matrix(0.33912491,0,0,0.33852655,-402.53969,-908.3754)"
           id="path3015"
           style="fill:none;stroke:#000000;stroke-width:6.66513872;stroke-miterlimit:4;stroke-dasharray:none;stroke-opacity:1"
           cx="645.71429"
           cy="646.64789"
           rx="23.571428"
           ry="23.571411" />
        <text
           id="text3793"
           y="-685.33014"
           x="-188.29698"
           style="font-style:normal;font-variant:normal;font-weight:bold;font-stretch:normal;line-height:0%;font-family:OpenSymbol;-inkscape-font-specification:'OpenSymbol Bold';letter-spacing:0px;word-spacing:0px;fill:#000000;fill-opacity:1;stroke:none"
           xml:space="preserve"><tspan
             y="-685.33014"
             x="-188.29698"
             id="tspan3795"
             sodipodi:role="line"
             style="font-size:12.65519524px;line-height:1.25">R</tspan></text>
      </g>
    </g>
  </g>
</svg>
