<?xml version="1.0" encoding="UTF-8" standalone="no"?>
<!-- Created with Inkscape (http://www.inkscape.org/) -->

<svg
   xmlns:dc="http://purl.org/dc/elements/1.1/"
   xmlns:cc="http://creativecommons.org/ns#"
   xmlns:rdf="http://www.w3.org/1999/02/22-rdf-syntax-ns#"
   xmlns:svg="http://www.w3.org/2000/svg"
   xmlns="http://www.w3.org/2000/svg"
   xmlns:sodipodi="http://sodipodi.sourceforge.net/DTD/sodipodi-0.dtd"
   xmlns:inkscape="http://www.inkscape.org/namespaces/inkscape"
   width="170mm"
   height="121.45903mm"
   viewBox="0 0 170 121.45903"
   version="1.1"
   id="svg3164"
   inkscape:version="0.92.1 r15371"
   sodipodi:docname="plan.svg">
  <defs
     id="defs3158">
    <marker
       inkscape:isstock="true"
       style="overflow:visible"
       id="marker30032"
       refX="0"
       refY="0"
       orient="auto"
       inkscape:stockid="StopL">
      <path
         inkscape:connector-curvature="0"
         transform="scale(0.8)"
         style="fill:#000000;fill-opacity:1;fill-rule:evenodd;stroke:#000000;stroke-width:1.00000003pt;stroke-opacity:1"
         d="M 0,5.65 V -5.65"
         id="path30030" />
    </marker>
    <marker
       inkscape:isstock="true"
       style="overflow:visible"
       id="marker29992"
       refX="0"
       refY="0"
       orient="auto"
       inkscape:stockid="StopL">
      <path
         inkscape:connector-curvature="0"
         transform="scale(0.8)"
         style="fill:#000000;fill-opacity:1;fill-rule:evenodd;stroke:#000000;stroke-width:1.00000003pt;stroke-opacity:1"
         d="M 0,5.65 V -5.65"
         id="path29990" />
    </marker>
    <marker
       inkscape:isstock="true"
       style="overflow:visible"
       id="marker24698"
       refX="0"
       refY="0"
       orient="auto"
       inkscape:stockid="StopL">
      <path
         transform="scale(0.8)"
         style="fill:#000000;fill-opacity:1;fill-rule:evenodd;stroke:#000000;stroke-width:1.00000003pt;stroke-opacity:1"
         d="M 0,5.65 V -5.65"
         id="path24696"
         inkscape:connector-curvature="0" />
    </marker>
    <marker
       inkscape:isstock="true"
       style="overflow:visible"
       id="marker24670"
       refX="0"
       refY="0"
       orient="auto"
       inkscape:stockid="StopL">
      <path
         transform="scale(0.8)"
         style="fill:#000000;fill-opacity:1;fill-rule:evenodd;stroke:#000000;stroke-width:1.00000003pt;stroke-opacity:1"
         d="M 0,5.65 V -5.65"
         id="path24668"
         inkscape:connector-curvature="0" />
    </marker>
    <marker
       inkscape:stockid="StopL"
       orient="auto"
       refY="0"
       refX="0"
       id="marker22663"
       style="overflow:visible"
       inkscape:isstock="true"
       inkscape:collect="always">
      <path
         id="path22661"
         d="M 0,5.65 V -5.65"
         style="fill:#000000;fill-opacity:1;fill-rule:evenodd;stroke:#000000;stroke-width:1.00000003pt;stroke-opacity:1"
         transform="scale(0.8)"
         inkscape:connector-curvature="0" />
    </marker>
    <marker
       inkscape:stockid="StopL"
       orient="auto"
       refY="0"
       refX="0"
       id="StopL"
       style="overflow:visible"
       inkscape:isstock="true"
       inkscape:collect="always">
      <path
         id="path21096"
         d="M 0,5.65 V -5.65"
         style="fill:#000000;fill-opacity:1;fill-rule:evenodd;stroke:#000000;stroke-width:1.00000003pt;stroke-opacity:1"
         transform="scale(0.8)"
         inkscape:connector-curvature="0" />
    </marker>
    <marker
       inkscape:stockid="StopL"
       orient="auto"
       refY="0"
       refX="0"
       id="StopL-2"
       style="overflow:visible"
       inkscape:isstock="true"
       inkscape:collect="always">
      <path
         id="path21096-4"
         d="M 0,5.65 V -5.65"
         style="fill:#000000;fill-opacity:1;fill-rule:evenodd;stroke:#000000;stroke-width:1.00000003pt;stroke-opacity:1"
         transform="scale(0.8)"
         inkscape:connector-curvature="0" />
    </marker>
    <marker
       inkscape:stockid="StopL"
       orient="auto"
       refY="0"
       refX="0"
       id="marker22663-4"
       style="overflow:visible"
       inkscape:isstock="true"
       inkscape:collect="always">
      <path
         id="path22661-7"
         d="M 0,5.65 V -5.65"
         style="fill:#000000;fill-opacity:1;fill-rule:evenodd;stroke:#000000;stroke-width:1.00000003pt;stroke-opacity:1"
         transform="scale(0.8)"
         inkscape:connector-curvature="0" />
    </marker>
  </defs>
  <sodipodi:namedview
     id="base"
     pagecolor="#ffffff"
     bordercolor="#666666"
     borderopacity="1.0"
     inkscape:pageopacity="0.0"
     inkscape:pageshadow="2"
     inkscape:zoom="0.72473178"
     inkscape:cx="360.58422"
     inkscape:cy="167.08996"
     inkscape:document-units="mm"
     inkscape:current-layer="layer1"
     showgrid="false"
     units="mm"
     fit-margin-top="0"
     fit-margin-left="0"
     fit-margin-right="0"
     fit-margin-bottom="0"
     inkscape:window-width="1920"
     inkscape:window-height="1138"
     inkscape:window-x="1912"
     inkscape:window-y="-8"
     inkscape:window-maximized="1" />
  <metadata
     id="metadata3161">
    <rdf:RDF>
      <cc:Work
         rdf:about="">
        <dc:format>image/svg+xml</dc:format>
        <dc:type
           rdf:resource="http://purl.org/dc/dcmitype/StillImage" />
        <dc:title />
      </cc:Work>
    </rdf:RDF>
  </metadata>
  <g
     inkscape:label="Ebene 1"
     inkscape:groupmode="layer"
     id="layer1"
     transform="translate(-48.56575,151.03254)">
    <rect
       style="opacity:1;fill:#4d9ca4;fill-opacity:1;fill-rule:nonzero;stroke:#ffffff;stroke-width:0.18926273;stroke-linecap:butt;stroke-linejoin:miter;stroke-miterlimit:4;stroke-dasharray:none;stroke-dashoffset:0;stroke-opacity:1;paint-order:normal"
       id="rect22106"
       width="169.81073"
       height="121.26977"
       x="48.660381"
       y="-150.93791" />
    <g
       id="g22637"
       transform="translate(-8.3226921,-7.4835468)">
      <path
         class="starcolor"
         inkscape:connector-curvature="0"
         id="path6238"
         d="m 105.12466,-126.91151 v 0.13262 l -6.317673,14.96147 -6.87e-4,0.002 -3.5e-4,6.9e-4 -3.52e-4,10e-4 -2.153494,5.09969 -0.222814,0.5274 -0.13964,0.33091 -4.192596,-1.70329 -1.799085,-0.73094 -0.0032,-0.001 -15.045704,-6.11169 -0.09431,-0.0945 0.02729,0.0673 -0.06735,-0.0275 0.09479,0.0945 2.132445,5.25022 1.277634,3.1455 2.701261,6.64998 0.0014,0.0032 2.434223,5.992033 -5.957993,2.515628 -0.0014,3.52e-4 -6.71e-4,3.51e-4 -0.0016,6.7e-4 -14.961123,6.317669 H 62.70072 l 0.06639,0.02808 -0.06639,0.02808 h 0.132615 l 14.961474,6.317667 0.0016,8.36e-4 6.86e-4,3.54e-4 0.0014,3.53e-4 5.957992,2.515617 -0.03831,0.09372 -0.05234,0.128757 -2.34369,5.769553 -0.0014,0.0048 -6.11134,15.045686 -3.5e-4,3.7e-4 -0.09447,0.09404 0.06735,-0.02733 -0.02729,0.06735 0.09431,-0.09436 15.045703,-6.111699 0.0016,-0.0013 0.0014,-8.52e-4 2.302996,-0.93549 3.688685,-1.498356 2.51598,5.957979 3.52e-4,0.0013 3.5e-4,8.36e-4 6.87e-4,0.0016 0.399669,0.946726 5.917991,14.01473 v 0.132615 l 0.0281,-0.06639 0.0281,0.06639 v -0.132937 l 6.31767,-14.961118 0.001,-0.0048 2.15349,-5.099695 0.22282,-0.52739 0.13964,-0.33091 5.99168,2.433862 8.4e-4,3.69e-4 8.5e-4,3.22e-4 8.5e-4,3.7e-4 15.04746,6.112391 0.0943,0.09452 -0.0273,-0.06735 0.0674,0.02733 -0.0948,-0.09436 -4.90738,-12.081944 -1.20396,-2.963743 -3.5e-4,-0.0013 -3.5e-4,-8.52e-4 -8.5e-4,-0.0016 -1.07271,-2.640885 -1.36116,-3.351156 5.95764,-2.515616 0.001,-3.54e-4 8.5e-4,-3.7e-4 0.94848,-0.400352 14.01474,-5.918023 h 0.13262 l -0.0664,-0.02808 0.0664,-0.02808 h -0.13294 l -14.96112,-6.317669 -0.005,-0.0014 -5.95765,-2.515629 2.43528,-5.995894 6.11133,-15.045692 0.0948,-0.0945 -0.0674,0.0275 0.0273,-0.0674 -0.0943,0.0945 -15.04569,6.1117 -10e-4,3.5e-4 -8.5e-4,3.5e-4 -0.002,6.7e-4 -5.99168,2.43422 -0.13964,-0.3309 -2.37677,-5.6285 -3.3e-4,-6.7e-4 -6.31855,-14.963 v -0.13294 l -0.0281,0.0664 z"
         style="fill:#ffffff;fill-opacity:1;fill-rule:evenodd;stroke:none;stroke-width:0.10249159px;stroke-linecap:butt;stroke-linejoin:miter;stroke-opacity:1" />
      <g
         transform="matrix(0.38736974,0,0,0.38736974,-38.894784,-163.20443)"
         id="g6236">
        <g
           id="g22458">
          <g
             transform="translate(268.56185,47.509284)"
             id="g5886">
            <g
               id="g5712">
              <g
                 id="g5626">
                <g
                   id="g5584"
                   transform="rotate(-20.453314,-8.6431656,-757.78666)">
                  <g
                     id="g5580"
                     transform="translate(1.4967085,7.1093695)">
                    <path
                       style="fill:#000000;fill-opacity:0.09803922;fill-rule:evenodd;stroke:none;stroke-width:0.26458332px;stroke-linecap:butt;stroke-linejoin:miter;stroke-opacity:1"
                       d="m -186.12829,27.529799 -38.36459,102.658331 -8.20208,-17.3302 -2.38125,-33.469787 z"
                       id="path5566"
                       inkscape:connector-curvature="0"
                       sodipodi:nodetypes="ccccc" />
                    <path
                       style="fill:#000000;fill-opacity:0.09803922;fill-rule:evenodd;stroke:none;stroke-width:0.26458332px;stroke-linecap:butt;stroke-linejoin:miter;stroke-opacity:1"
                       d="m -219.0559,77.9502 1.31509,34.17034 -6.75207,18.06759 -8.20208,-17.3302 -2.38125,-33.46979 8.1876,-8.67443 z"
                       id="path5568"
                       inkscape:connector-curvature="0"
                       sodipodi:nodetypes="ccccccc" />
                    <path
                       style="fill:#000000;fill-opacity:0.09803922;fill-rule:evenodd;stroke:none;stroke-width:0.26458332px;stroke-linecap:butt;stroke-linejoin:miter;stroke-opacity:0.09803922"
                       d="m -186.12829,27.529799 -13.75833,34.924996 -35.18958,16.933343 z"
                       id="path5570"
                       inkscape:connector-curvature="0"
                       sodipodi:nodetypes="cccc" />
                    <path
                       style="fill:#000000;fill-opacity:0.09803922;fill-rule:evenodd;stroke:none;stroke-width:0.26499999;stroke-linecap:butt;stroke-linejoin:miter;stroke-miterlimit:4;stroke-dasharray:none;stroke-opacity:1"
                       d="m -199.88662,62.454795 -35.18958,16.933343 19.91514,-21.099289 z"
                       id="path5572"
                       inkscape:connector-curvature="0"
                       sodipodi:nodetypes="cccc" />
                    <path
                       style="fill:#000000;fill-opacity:0.09803922;fill-rule:evenodd;stroke:none;stroke-width:0.26458332px;stroke-linecap:butt;stroke-linejoin:miter;stroke-opacity:1"
                       d="m -205.82879,78.565068 -28.38186,12.98879 -0.86555,-12.16572 19.90773,-21.091436 z"
                       id="path5574"
                       inkscape:connector-curvature="0"
                       sodipodi:nodetypes="ccccc" />
                    <path
                       style="fill:#000000;fill-opacity:0.09803922;fill-rule:evenodd;stroke:none;stroke-width:0.26458332px;stroke-linecap:butt;stroke-linejoin:miter;stroke-opacity:1"
                       d="m -226.21266,93.675628 -6.48229,19.182302 -2.38125,-33.469792 z"
                       id="path5576"
                       inkscape:connector-curvature="0"
                       sodipodi:nodetypes="cccc" />
                    <path
                       style="fill:#000000;fill-opacity:0.09803922;fill-rule:evenodd;stroke:none;stroke-width:0.26458332px;stroke-linecap:butt;stroke-linejoin:miter;stroke-opacity:1"
                       d="m -226.34495,93.807928 -7.8657,-2.25407 -0.86554,-12.165712 z"
                       id="path5578"
                       inkscape:connector-curvature="0"
                       sodipodi:nodetypes="cccc" />
                  </g>
                  <path
                     sodipodi:nodetypes="cc"
                     inkscape:connector-curvature="0"
                     id="path5582"
                     d="m -225.3919,77.82308 40.76032,-43.183911"
                     style="fill:none;fill-rule:evenodd;stroke:#000000;stroke-width:0.26458332px;stroke-linecap:butt;stroke-linejoin:miter;stroke-opacity:1" />
                </g>
                <g
                   transform="matrix(-0.90962307,0.41543457,0.41543457,0.90962307,-156.58153,123.52465)"
                   id="g5604">
                  <g
                     transform="translate(1.4967085,7.1093695)"
                     id="g5600">
                    <path
                       sodipodi:nodetypes="ccccc"
                       inkscape:connector-curvature="0"
                       id="path5586"
                       d="m -186.12829,27.529799 -38.36459,102.658331 -8.20208,-17.3302 -2.38125,-33.469787 z"
                       style="fill:#000000;fill-opacity:0.09803922;fill-rule:evenodd;stroke:none;stroke-width:0.26458332px;stroke-linecap:butt;stroke-linejoin:miter;stroke-opacity:1" />
                    <path
                       sodipodi:nodetypes="ccccccc"
                       inkscape:connector-curvature="0"
                       id="path5588"
                       d="m -219.0559,77.9502 1.31509,34.17034 -6.75207,18.06759 -8.20208,-17.3302 -2.38125,-33.46979 8.1876,-8.67443 z"
                       style="fill:#000000;fill-opacity:0.09803922;fill-rule:evenodd;stroke:none;stroke-width:0.26458332px;stroke-linecap:butt;stroke-linejoin:miter;stroke-opacity:1" />
                    <path
                       sodipodi:nodetypes="cccc"
                       inkscape:connector-curvature="0"
                       id="path5590"
                       d="m -186.12829,27.529799 -13.75833,34.924996 -35.18958,16.933343 z"
                       style="fill:#000000;fill-opacity:0.09803922;fill-rule:evenodd;stroke:none;stroke-width:0.26458332px;stroke-linecap:butt;stroke-linejoin:miter;stroke-opacity:0.09803922" />
                    <path
                       sodipodi:nodetypes="cccc"
                       inkscape:connector-curvature="0"
                       id="path5592"
                       d="m -199.88662,62.454795 -35.18958,16.933343 19.91514,-21.099289 z"
                       style="fill:#000000;fill-opacity:0.09803922;fill-rule:evenodd;stroke:none;stroke-width:0.26499999;stroke-linecap:butt;stroke-linejoin:miter;stroke-miterlimit:4;stroke-dasharray:none;stroke-opacity:1" />
                    <path
                       sodipodi:nodetypes="ccccc"
                       inkscape:connector-curvature="0"
                       id="path5594"
                       d="m -205.82879,78.565068 -28.38186,12.98879 -0.86555,-12.16572 19.90773,-21.091436 z"
                       style="fill:#000000;fill-opacity:0.09803922;fill-rule:evenodd;stroke:none;stroke-width:0.26458332px;stroke-linecap:butt;stroke-linejoin:miter;stroke-opacity:1" />
                    <path
                       sodipodi:nodetypes="cccc"
                       inkscape:connector-curvature="0"
                       id="path5596"
                       d="m -226.21266,93.675628 -6.48229,19.182302 -2.38125,-33.469792 z"
                       style="fill:#000000;fill-opacity:0.09803922;fill-rule:evenodd;stroke:none;stroke-width:0.26458332px;stroke-linecap:butt;stroke-linejoin:miter;stroke-opacity:1" />
                    <path
                       sodipodi:nodetypes="cccc"
                       inkscape:connector-curvature="0"
                       id="path5598"
                       d="m -226.34495,93.807928 -7.8657,-2.25407 -0.86554,-12.165712 z"
                       style="fill:#000000;fill-opacity:0.09803922;fill-rule:evenodd;stroke:none;stroke-width:0.26458332px;stroke-linecap:butt;stroke-linejoin:miter;stroke-opacity:1" />
                  </g>
                  <path
                     style="fill:none;fill-rule:evenodd;stroke:#000000;stroke-width:0.26458332px;stroke-linecap:butt;stroke-linejoin:miter;stroke-opacity:1"
                     d="m -225.3919,77.82308 40.76032,-43.183911"
                     id="path5602"
                     inkscape:connector-curvature="0"
                     sodipodi:nodetypes="cc" />
                </g>
              </g>
              <g
                 transform="rotate(-45,103.29906,155.7733)"
                 id="g5668">
                <g
                   transform="rotate(-20.453314,-8.6431656,-757.78666)"
                   id="g5646">
                  <g
                     transform="translate(1.4967085,7.1093695)"
                     id="g5642">
                    <path
                       sodipodi:nodetypes="ccccc"
                       inkscape:connector-curvature="0"
                       id="path5628"
                       d="m -186.12829,27.529799 -38.36459,102.658331 -8.20208,-17.3302 -2.38125,-33.469787 z"
                       style="fill:#000000;fill-opacity:0.09803922;fill-rule:evenodd;stroke:none;stroke-width:0.26458332px;stroke-linecap:butt;stroke-linejoin:miter;stroke-opacity:1" />
                    <path
                       sodipodi:nodetypes="ccccccc"
                       inkscape:connector-curvature="0"
                       id="path5630"
                       d="m -219.0559,77.9502 1.31509,34.17034 -6.75207,18.06759 -8.20208,-17.3302 -2.38125,-33.46979 8.1876,-8.67443 z"
                       style="fill:#000000;fill-opacity:0.09803922;fill-rule:evenodd;stroke:none;stroke-width:0.26458332px;stroke-linecap:butt;stroke-linejoin:miter;stroke-opacity:1" />
                    <path
                       sodipodi:nodetypes="cccc"
                       inkscape:connector-curvature="0"
                       id="path5632"
                       d="m -186.12829,27.529799 -13.75833,34.924996 -35.18958,16.933343 z"
                       style="fill:#000000;fill-opacity:0.09803922;fill-rule:evenodd;stroke:none;stroke-width:0.26458332px;stroke-linecap:butt;stroke-linejoin:miter;stroke-opacity:0.09803922" />
                    <path
                       sodipodi:nodetypes="cccc"
                       inkscape:connector-curvature="0"
                       id="path5634"
                       d="m -199.88662,62.454795 -35.18958,16.933343 19.91514,-21.099289 z"
                       style="fill:#000000;fill-opacity:0.09803922;fill-rule:evenodd;stroke:none;stroke-width:0.26499999;stroke-linecap:butt;stroke-linejoin:miter;stroke-miterlimit:4;stroke-dasharray:none;stroke-opacity:1" />
                    <path
                       sodipodi:nodetypes="ccccc"
                       inkscape:connector-curvature="0"
                       id="path5636"
                       d="m -205.82879,78.565068 -28.38186,12.98879 -0.86555,-12.16572 19.90773,-21.091436 z"
                       style="fill:#000000;fill-opacity:0.09803922;fill-rule:evenodd;stroke:none;stroke-width:0.26458332px;stroke-linecap:butt;stroke-linejoin:miter;stroke-opacity:1" />
                    <path
                       sodipodi:nodetypes="cccc"
                       inkscape:connector-curvature="0"
                       id="path5638"
                       d="m -226.21266,93.675628 -6.48229,19.182302 -2.38125,-33.469792 z"
                       style="fill:#000000;fill-opacity:0.09803922;fill-rule:evenodd;stroke:none;stroke-width:0.26458332px;stroke-linecap:butt;stroke-linejoin:miter;stroke-opacity:1" />
                    <path
                       sodipodi:nodetypes="cccc"
                       inkscape:connector-curvature="0"
                       id="path5640"
                       d="m -226.34495,93.807928 -7.8657,-2.25407 -0.86554,-12.165712 z"
                       style="fill:#000000;fill-opacity:0.09803922;fill-rule:evenodd;stroke:none;stroke-width:0.26458332px;stroke-linecap:butt;stroke-linejoin:miter;stroke-opacity:1" />
                  </g>
                  <path
                     style="fill:none;fill-rule:evenodd;stroke:#000000;stroke-width:0.26458332px;stroke-linecap:butt;stroke-linejoin:miter;stroke-opacity:1"
                     d="m -225.3919,77.82308 40.76032,-43.183911"
                     id="path5644"
                     inkscape:connector-curvature="0"
                     sodipodi:nodetypes="cc" />
                </g>
                <g
                   id="g5666"
                   transform="matrix(-0.90962307,0.41543457,0.41543457,0.90962307,-156.58153,123.52465)">
                  <g
                     id="g5662"
                     transform="translate(1.4967085,7.1093695)">
                    <path
                       style="fill:#000000;fill-opacity:0.09803922;fill-rule:evenodd;stroke:none;stroke-width:0.26458332px;stroke-linecap:butt;stroke-linejoin:miter;stroke-opacity:1"
                       d="m -186.12829,27.529799 -38.36459,102.658331 -8.20208,-17.3302 -2.38125,-33.469787 z"
                       id="path5648"
                       inkscape:connector-curvature="0"
                       sodipodi:nodetypes="ccccc" />
                    <path
                       style="fill:#000000;fill-opacity:0.09803922;fill-rule:evenodd;stroke:none;stroke-width:0.26458332px;stroke-linecap:butt;stroke-linejoin:miter;stroke-opacity:1"
                       d="m -219.0559,77.9502 1.31509,34.17034 -6.75207,18.06759 -8.20208,-17.3302 -2.38125,-33.46979 8.1876,-8.67443 z"
                       id="path5650"
                       inkscape:connector-curvature="0"
                       sodipodi:nodetypes="ccccccc" />
                    <path
                       style="fill:#000000;fill-opacity:0.09803922;fill-rule:evenodd;stroke:none;stroke-width:0.26458332px;stroke-linecap:butt;stroke-linejoin:miter;stroke-opacity:0.09803922"
                       d="m -186.12829,27.529799 -13.75833,34.924996 -35.18958,16.933343 z"
                       id="path5652"
                       inkscape:connector-curvature="0"
                       sodipodi:nodetypes="cccc" />
                    <path
                       style="fill:#000000;fill-opacity:0.09803922;fill-rule:evenodd;stroke:none;stroke-width:0.26499999;stroke-linecap:butt;stroke-linejoin:miter;stroke-miterlimit:4;stroke-dasharray:none;stroke-opacity:1"
                       d="m -199.88662,62.454795 -35.18958,16.933343 19.91514,-21.099289 z"
                       id="path5654"
                       inkscape:connector-curvature="0"
                       sodipodi:nodetypes="cccc" />
                    <path
                       style="fill:#000000;fill-opacity:0.09803922;fill-rule:evenodd;stroke:none;stroke-width:0.26458332px;stroke-linecap:butt;stroke-linejoin:miter;stroke-opacity:1"
                       d="m -205.82879,78.565068 -28.38186,12.98879 -0.86555,-12.16572 19.90773,-21.091436 z"
                       id="path5656"
                       inkscape:connector-curvature="0"
                       sodipodi:nodetypes="ccccc" />
                    <path
                       style="fill:#000000;fill-opacity:0.09803922;fill-rule:evenodd;stroke:none;stroke-width:0.26458332px;stroke-linecap:butt;stroke-linejoin:miter;stroke-opacity:1"
                       d="m -226.21266,93.675628 -6.48229,19.182302 -2.38125,-33.469792 z"
                       id="path5658"
                       inkscape:connector-curvature="0"
                       sodipodi:nodetypes="cccc" />
                    <path
                       style="fill:#000000;fill-opacity:0.09803922;fill-rule:evenodd;stroke:none;stroke-width:0.26458332px;stroke-linecap:butt;stroke-linejoin:miter;stroke-opacity:1"
                       d="m -226.34495,93.807928 -7.8657,-2.25407 -0.86554,-12.165712 z"
                       id="path5660"
                       inkscape:connector-curvature="0"
                       sodipodi:nodetypes="cccc" />
                  </g>
                  <path
                     sodipodi:nodetypes="cc"
                     inkscape:connector-curvature="0"
                     id="path5664"
                     d="m -225.3919,77.82308 40.76032,-43.183911"
                     style="fill:none;fill-rule:evenodd;stroke:#000000;stroke-width:0.26458332px;stroke-linecap:butt;stroke-linejoin:miter;stroke-opacity:1" />
                </g>
              </g>
            </g>
            <g
               id="g5798"
               transform="matrix(-1,0,0,1,206.59812,-4.5607017e-6)">
              <g
                 id="g5754">
                <g
                   transform="rotate(-20.453314,-8.6431656,-757.78666)"
                   id="g5732">
                  <g
                     transform="translate(1.4967085,7.1093695)"
                     id="g5728">
                    <path
                       sodipodi:nodetypes="ccccc"
                       inkscape:connector-curvature="0"
                       id="path5714"
                       d="m -186.12829,27.529799 -38.36459,102.658331 -8.20208,-17.3302 -2.38125,-33.469787 z"
                       style="fill:#000000;fill-opacity:0.09803922;fill-rule:evenodd;stroke:none;stroke-width:0.26458332px;stroke-linecap:butt;stroke-linejoin:miter;stroke-opacity:1" />
                    <path
                       sodipodi:nodetypes="ccccccc"
                       inkscape:connector-curvature="0"
                       id="path5716"
                       d="m -219.0559,77.9502 1.31509,34.17034 -6.75207,18.06759 -8.20208,-17.3302 -2.38125,-33.46979 8.1876,-8.67443 z"
                       style="fill:#000000;fill-opacity:0.09803922;fill-rule:evenodd;stroke:none;stroke-width:0.26458332px;stroke-linecap:butt;stroke-linejoin:miter;stroke-opacity:1" />
                    <path
                       sodipodi:nodetypes="cccc"
                       inkscape:connector-curvature="0"
                       id="path5718"
                       d="m -186.12829,27.529799 -13.75833,34.924996 -35.18958,16.933343 z"
                       style="fill:#000000;fill-opacity:0.09803922;fill-rule:evenodd;stroke:none;stroke-width:0.26458332px;stroke-linecap:butt;stroke-linejoin:miter;stroke-opacity:0.09803922" />
                    <path
                       sodipodi:nodetypes="cccc"
                       inkscape:connector-curvature="0"
                       id="path5720"
                       d="m -199.88662,62.454795 -35.18958,16.933343 19.91514,-21.099289 z"
                       style="fill:#000000;fill-opacity:0.09803922;fill-rule:evenodd;stroke:none;stroke-width:0.26499999;stroke-linecap:butt;stroke-linejoin:miter;stroke-miterlimit:4;stroke-dasharray:none;stroke-opacity:1" />
                    <path
                       sodipodi:nodetypes="ccccc"
                       inkscape:connector-curvature="0"
                       id="path5722"
                       d="m -205.82879,78.565068 -28.38186,12.98879 -0.86555,-12.16572 19.90773,-21.091436 z"
                       style="fill:#000000;fill-opacity:0.09803922;fill-rule:evenodd;stroke:none;stroke-width:0.26458332px;stroke-linecap:butt;stroke-linejoin:miter;stroke-opacity:1" />
                    <path
                       sodipodi:nodetypes="cccc"
                       inkscape:connector-curvature="0"
                       id="path5724"
                       d="m -226.21266,93.675628 -6.48229,19.182302 -2.38125,-33.469792 z"
                       style="fill:#000000;fill-opacity:0.09803922;fill-rule:evenodd;stroke:none;stroke-width:0.26458332px;stroke-linecap:butt;stroke-linejoin:miter;stroke-opacity:1" />
                    <path
                       sodipodi:nodetypes="cccc"
                       inkscape:connector-curvature="0"
                       id="path5726"
                       d="m -226.34495,93.807928 -7.8657,-2.25407 -0.86554,-12.165712 z"
                       style="fill:#000000;fill-opacity:0.09803922;fill-rule:evenodd;stroke:none;stroke-width:0.26458332px;stroke-linecap:butt;stroke-linejoin:miter;stroke-opacity:1" />
                  </g>
                  <path
                     style="fill:none;fill-rule:evenodd;stroke:#000000;stroke-width:0.26458332px;stroke-linecap:butt;stroke-linejoin:miter;stroke-opacity:1"
                     d="m -225.3919,77.82308 40.76032,-43.183911"
                     id="path5730"
                     inkscape:connector-curvature="0"
                     sodipodi:nodetypes="cc" />
                </g>
                <g
                   id="g5752"
                   transform="matrix(-0.90962307,0.41543457,0.41543457,0.90962307,-156.58153,123.52465)">
                  <g
                     id="g5748"
                     transform="translate(1.4967085,7.1093695)">
                    <path
                       style="fill:#000000;fill-opacity:0.09803922;fill-rule:evenodd;stroke:none;stroke-width:0.26458332px;stroke-linecap:butt;stroke-linejoin:miter;stroke-opacity:1"
                       d="m -186.12829,27.529799 -38.36459,102.658331 -8.20208,-17.3302 -2.38125,-33.469787 z"
                       id="path5734"
                       inkscape:connector-curvature="0"
                       sodipodi:nodetypes="ccccc" />
                    <path
                       style="fill:#000000;fill-opacity:0.09803922;fill-rule:evenodd;stroke:none;stroke-width:0.26458332px;stroke-linecap:butt;stroke-linejoin:miter;stroke-opacity:1"
                       d="m -219.0559,77.9502 1.31509,34.17034 -6.75207,18.06759 -8.20208,-17.3302 -2.38125,-33.46979 8.1876,-8.67443 z"
                       id="path5736"
                       inkscape:connector-curvature="0"
                       sodipodi:nodetypes="ccccccc" />
                    <path
                       style="fill:#000000;fill-opacity:0.09803922;fill-rule:evenodd;stroke:none;stroke-width:0.26458332px;stroke-linecap:butt;stroke-linejoin:miter;stroke-opacity:0.09803922"
                       d="m -186.12829,27.529799 -13.75833,34.924996 -35.18958,16.933343 z"
                       id="path5738"
                       inkscape:connector-curvature="0"
                       sodipodi:nodetypes="cccc" />
                    <path
                       style="fill:#000000;fill-opacity:0.09803922;fill-rule:evenodd;stroke:none;stroke-width:0.26499999;stroke-linecap:butt;stroke-linejoin:miter;stroke-miterlimit:4;stroke-dasharray:none;stroke-opacity:1"
                       d="m -199.88662,62.454795 -35.18958,16.933343 19.91514,-21.099289 z"
                       id="path5740"
                       inkscape:connector-curvature="0"
                       sodipodi:nodetypes="cccc" />
                    <path
                       style="fill:#000000;fill-opacity:0.09803922;fill-rule:evenodd;stroke:none;stroke-width:0.26458332px;stroke-linecap:butt;stroke-linejoin:miter;stroke-opacity:1"
                       d="m -205.82879,78.565068 -28.38186,12.98879 -0.86555,-12.16572 19.90773,-21.091436 z"
                       id="path5742"
                       inkscape:connector-curvature="0"
                       sodipodi:nodetypes="ccccc" />
                    <path
                       style="fill:#000000;fill-opacity:0.09803922;fill-rule:evenodd;stroke:none;stroke-width:0.26458332px;stroke-linecap:butt;stroke-linejoin:miter;stroke-opacity:1"
                       d="m -226.21266,93.675628 -6.48229,19.182302 -2.38125,-33.469792 z"
                       id="path5744"
                       inkscape:connector-curvature="0"
                       sodipodi:nodetypes="cccc" />
                    <path
                       style="fill:#000000;fill-opacity:0.09803922;fill-rule:evenodd;stroke:none;stroke-width:0.26458332px;stroke-linecap:butt;stroke-linejoin:miter;stroke-opacity:1"
                       d="m -226.34495,93.807928 -7.8657,-2.25407 -0.86554,-12.165712 z"
                       id="path5746"
                       inkscape:connector-curvature="0"
                       sodipodi:nodetypes="cccc" />
                  </g>
                  <path
                     sodipodi:nodetypes="cc"
                     inkscape:connector-curvature="0"
                     id="path5750"
                     d="m -225.3919,77.82308 40.76032,-43.183911"
                     style="fill:none;fill-rule:evenodd;stroke:#000000;stroke-width:0.26458332px;stroke-linecap:butt;stroke-linejoin:miter;stroke-opacity:1" />
                </g>
              </g>
              <g
                 id="g5796"
                 transform="rotate(-45,103.29906,155.7733)">
                <g
                   id="g5774"
                   transform="rotate(-20.453314,-8.6431656,-757.78666)">
                  <g
                     id="g5770"
                     transform="translate(1.4967085,7.1093695)">
                    <path
                       style="fill:#000000;fill-opacity:0.09803922;fill-rule:evenodd;stroke:none;stroke-width:0.26458332px;stroke-linecap:butt;stroke-linejoin:miter;stroke-opacity:1"
                       d="m -186.12829,27.529799 -38.36459,102.658331 -8.20208,-17.3302 -2.38125,-33.469787 z"
                       id="path5756"
                       inkscape:connector-curvature="0"
                       sodipodi:nodetypes="ccccc" />
                    <path
                       style="fill:#000000;fill-opacity:0.09803922;fill-rule:evenodd;stroke:none;stroke-width:0.26458332px;stroke-linecap:butt;stroke-linejoin:miter;stroke-opacity:1"
                       d="m -219.0559,77.9502 1.31509,34.17034 -6.75207,18.06759 -8.20208,-17.3302 -2.38125,-33.46979 8.1876,-8.67443 z"
                       id="path5758"
                       inkscape:connector-curvature="0"
                       sodipodi:nodetypes="ccccccc" />
                    <path
                       style="fill:#000000;fill-opacity:0.09803922;fill-rule:evenodd;stroke:none;stroke-width:0.26458332px;stroke-linecap:butt;stroke-linejoin:miter;stroke-opacity:0.09803922"
                       d="m -186.12829,27.529799 -13.75833,34.924996 -35.18958,16.933343 z"
                       id="path5760"
                       inkscape:connector-curvature="0"
                       sodipodi:nodetypes="cccc" />
                    <path
                       style="fill:#000000;fill-opacity:0.09803922;fill-rule:evenodd;stroke:none;stroke-width:0.26499999;stroke-linecap:butt;stroke-linejoin:miter;stroke-miterlimit:4;stroke-dasharray:none;stroke-opacity:1"
                       d="m -199.88662,62.454795 -35.18958,16.933343 19.91514,-21.099289 z"
                       id="path5762"
                       inkscape:connector-curvature="0"
                       sodipodi:nodetypes="cccc" />
                    <path
                       style="fill:#000000;fill-opacity:0.09803922;fill-rule:evenodd;stroke:none;stroke-width:0.26458332px;stroke-linecap:butt;stroke-linejoin:miter;stroke-opacity:1"
                       d="m -205.82879,78.565068 -28.38186,12.98879 -0.86555,-12.16572 19.90773,-21.091436 z"
                       id="path5764"
                       inkscape:connector-curvature="0"
                       sodipodi:nodetypes="ccccc" />
                    <path
                       style="fill:#000000;fill-opacity:0.09803922;fill-rule:evenodd;stroke:none;stroke-width:0.26458332px;stroke-linecap:butt;stroke-linejoin:miter;stroke-opacity:1"
                       d="m -226.21266,93.675628 -6.48229,19.182302 -2.38125,-33.469792 z"
                       id="path5766"
                       inkscape:connector-curvature="0"
                       sodipodi:nodetypes="cccc" />
                    <path
                       style="fill:#000000;fill-opacity:0.09803922;fill-rule:evenodd;stroke:none;stroke-width:0.26458332px;stroke-linecap:butt;stroke-linejoin:miter;stroke-opacity:1"
                       d="m -226.34495,93.807928 -7.8657,-2.25407 -0.86554,-12.165712 z"
                       id="path5768"
                       inkscape:connector-curvature="0"
                       sodipodi:nodetypes="cccc" />
                  </g>
                  <path
                     sodipodi:nodetypes="cc"
                     inkscape:connector-curvature="0"
                     id="path5772"
                     d="m -225.3919,77.82308 40.76032,-43.183911"
                     style="fill:none;fill-rule:evenodd;stroke:#000000;stroke-width:0.26458332px;stroke-linecap:butt;stroke-linejoin:miter;stroke-opacity:1" />
                </g>
                <g
                   transform="matrix(-0.90962307,0.41543457,0.41543457,0.90962307,-156.58153,123.52465)"
                   id="g5794">
                  <g
                     transform="translate(1.4967085,7.1093695)"
                     id="g5790">
                    <path
                       sodipodi:nodetypes="ccccc"
                       inkscape:connector-curvature="0"
                       id="path5776"
                       d="m -186.12829,27.529799 -38.36459,102.658331 -8.20208,-17.3302 -2.38125,-33.469787 z"
                       style="fill:#000000;fill-opacity:0.09803922;fill-rule:evenodd;stroke:none;stroke-width:0.26458332px;stroke-linecap:butt;stroke-linejoin:miter;stroke-opacity:1" />
                    <path
                       sodipodi:nodetypes="ccccccc"
                       inkscape:connector-curvature="0"
                       id="path5778"
                       d="m -219.0559,77.9502 1.31509,34.17034 -6.75207,18.06759 -8.20208,-17.3302 -2.38125,-33.46979 8.1876,-8.67443 z"
                       style="fill:#000000;fill-opacity:0.09803922;fill-rule:evenodd;stroke:none;stroke-width:0.26458332px;stroke-linecap:butt;stroke-linejoin:miter;stroke-opacity:1" />
                    <path
                       sodipodi:nodetypes="cccc"
                       inkscape:connector-curvature="0"
                       id="path5780"
                       d="m -186.12829,27.529799 -13.75833,34.924996 -35.18958,16.933343 z"
                       style="fill:#000000;fill-opacity:0.09803922;fill-rule:evenodd;stroke:none;stroke-width:0.26458332px;stroke-linecap:butt;stroke-linejoin:miter;stroke-opacity:0.09803922" />
                    <path
                       sodipodi:nodetypes="cccc"
                       inkscape:connector-curvature="0"
                       id="path5782"
                       d="m -199.88662,62.454795 -35.18958,16.933343 19.91514,-21.099289 z"
                       style="fill:#000000;fill-opacity:0.09803922;fill-rule:evenodd;stroke:none;stroke-width:0.26499999;stroke-linecap:butt;stroke-linejoin:miter;stroke-miterlimit:4;stroke-dasharray:none;stroke-opacity:1" />
                    <path
                       sodipodi:nodetypes="ccccc"
                       inkscape:connector-curvature="0"
                       id="path5784"
                       d="m -205.82879,78.565068 -28.38186,12.98879 -0.86555,-12.16572 19.90773,-21.091436 z"
                       style="fill:#000000;fill-opacity:0.09803922;fill-rule:evenodd;stroke:none;stroke-width:0.26458332px;stroke-linecap:butt;stroke-linejoin:miter;stroke-opacity:1" />
                    <path
                       sodipodi:nodetypes="cccc"
                       inkscape:connector-curvature="0"
                       id="path5786"
                       d="m -226.21266,93.675628 -6.48229,19.182302 -2.38125,-33.469792 z"
                       style="fill:#000000;fill-opacity:0.09803922;fill-rule:evenodd;stroke:none;stroke-width:0.26458332px;stroke-linecap:butt;stroke-linejoin:miter;stroke-opacity:1" />
                    <path
                       sodipodi:nodetypes="cccc"
                       inkscape:connector-curvature="0"
                       id="path5788"
                       d="m -226.34495,93.807928 -7.8657,-2.25407 -0.86554,-12.165712 z"
                       style="fill:#000000;fill-opacity:0.09803922;fill-rule:evenodd;stroke:none;stroke-width:0.26458332px;stroke-linecap:butt;stroke-linejoin:miter;stroke-opacity:1" />
                  </g>
                  <path
                     style="fill:none;fill-rule:evenodd;stroke:#000000;stroke-width:0.26458332px;stroke-linecap:butt;stroke-linejoin:miter;stroke-opacity:1"
                     d="m -225.3919,77.82308 40.76032,-43.183911"
                     id="path5792"
                     inkscape:connector-curvature="0"
                     sodipodi:nodetypes="cc" />
                </g>
              </g>
            </g>
          </g>
          <g
             transform="matrix(1,0,0,-1,268.56185,359.05587)"
             id="g6060">
            <g
               id="g5972">
              <g
                 id="g5928">
                <g
                   transform="rotate(-20.453314,-8.6431656,-757.78666)"
                   id="g5906">
                  <g
                     transform="translate(1.4967085,7.1093695)"
                     id="g5902">
                    <path
                       sodipodi:nodetypes="ccccc"
                       inkscape:connector-curvature="0"
                       id="path5888"
                       d="m -186.12829,27.529799 -38.36459,102.658331 -8.20208,-17.3302 -2.38125,-33.469787 z"
                       style="fill:#000000;fill-opacity:0.09803922;fill-rule:evenodd;stroke:none;stroke-width:0.26458332px;stroke-linecap:butt;stroke-linejoin:miter;stroke-opacity:1" />
                    <path
                       sodipodi:nodetypes="ccccccc"
                       inkscape:connector-curvature="0"
                       id="path5890"
                       d="m -219.0559,77.9502 1.31509,34.17034 -6.75207,18.06759 -8.20208,-17.3302 -2.38125,-33.46979 8.1876,-8.67443 z"
                       style="fill:#000000;fill-opacity:0.09803922;fill-rule:evenodd;stroke:none;stroke-width:0.26458332px;stroke-linecap:butt;stroke-linejoin:miter;stroke-opacity:1" />
                    <path
                       sodipodi:nodetypes="cccc"
                       inkscape:connector-curvature="0"
                       id="path5892"
                       d="m -186.12829,27.529799 -13.75833,34.924996 -35.18958,16.933343 z"
                       style="fill:#000000;fill-opacity:0.09803922;fill-rule:evenodd;stroke:none;stroke-width:0.26458332px;stroke-linecap:butt;stroke-linejoin:miter;stroke-opacity:0.09803922" />
                    <path
                       sodipodi:nodetypes="cccc"
                       inkscape:connector-curvature="0"
                       id="path5894"
                       d="m -199.88662,62.454795 -35.18958,16.933343 19.91514,-21.099289 z"
                       style="fill:#000000;fill-opacity:0.09803922;fill-rule:evenodd;stroke:none;stroke-width:0.26499999;stroke-linecap:butt;stroke-linejoin:miter;stroke-miterlimit:4;stroke-dasharray:none;stroke-opacity:1" />
                    <path
                       sodipodi:nodetypes="ccccc"
                       inkscape:connector-curvature="0"
                       id="path5896"
                       d="m -205.82879,78.565068 -28.38186,12.98879 -0.86555,-12.16572 19.90773,-21.091436 z"
                       style="fill:#000000;fill-opacity:0.09803922;fill-rule:evenodd;stroke:none;stroke-width:0.26458332px;stroke-linecap:butt;stroke-linejoin:miter;stroke-opacity:1" />
                    <path
                       sodipodi:nodetypes="cccc"
                       inkscape:connector-curvature="0"
                       id="path5898"
                       d="m -226.21266,93.675628 -6.48229,19.182302 -2.38125,-33.469792 z"
                       style="fill:#000000;fill-opacity:0.09803922;fill-rule:evenodd;stroke:none;stroke-width:0.26458332px;stroke-linecap:butt;stroke-linejoin:miter;stroke-opacity:1" />
                    <path
                       sodipodi:nodetypes="cccc"
                       inkscape:connector-curvature="0"
                       id="path5900"
                       d="m -226.34495,93.807928 -7.8657,-2.25407 -0.86554,-12.165712 z"
                       style="fill:#000000;fill-opacity:0.09803922;fill-rule:evenodd;stroke:none;stroke-width:0.26458332px;stroke-linecap:butt;stroke-linejoin:miter;stroke-opacity:1" />
                  </g>
                  <path
                     style="fill:none;fill-rule:evenodd;stroke:#000000;stroke-width:0.26458332px;stroke-linecap:butt;stroke-linejoin:miter;stroke-opacity:1"
                     d="m -225.3919,77.82308 40.76032,-43.183911"
                     id="path5904"
                     inkscape:connector-curvature="0"
                     sodipodi:nodetypes="cc" />
                </g>
                <g
                   id="g5926"
                   transform="matrix(-0.90962307,0.41543457,0.41543457,0.90962307,-156.58153,123.52465)">
                  <g
                     id="g5922"
                     transform="translate(1.4967085,7.1093695)">
                    <path
                       style="fill:#000000;fill-opacity:0.09803922;fill-rule:evenodd;stroke:none;stroke-width:0.26458332px;stroke-linecap:butt;stroke-linejoin:miter;stroke-opacity:1"
                       d="m -186.12829,27.529799 -38.36459,102.658331 -8.20208,-17.3302 -2.38125,-33.469787 z"
                       id="path5908"
                       inkscape:connector-curvature="0"
                       sodipodi:nodetypes="ccccc" />
                    <path
                       style="fill:#000000;fill-opacity:0.09803922;fill-rule:evenodd;stroke:none;stroke-width:0.26458332px;stroke-linecap:butt;stroke-linejoin:miter;stroke-opacity:1"
                       d="m -219.0559,77.9502 1.31509,34.17034 -6.75207,18.06759 -8.20208,-17.3302 -2.38125,-33.46979 8.1876,-8.67443 z"
                       id="path5910"
                       inkscape:connector-curvature="0"
                       sodipodi:nodetypes="ccccccc" />
                    <path
                       style="fill:#000000;fill-opacity:0.09803922;fill-rule:evenodd;stroke:none;stroke-width:0.26458332px;stroke-linecap:butt;stroke-linejoin:miter;stroke-opacity:0.09803922"
                       d="m -186.12829,27.529799 -13.75833,34.924996 -35.18958,16.933343 z"
                       id="path5912"
                       inkscape:connector-curvature="0"
                       sodipodi:nodetypes="cccc" />
                    <path
                       style="fill:#000000;fill-opacity:0.09803922;fill-rule:evenodd;stroke:none;stroke-width:0.26499999;stroke-linecap:butt;stroke-linejoin:miter;stroke-miterlimit:4;stroke-dasharray:none;stroke-opacity:1"
                       d="m -199.88662,62.454795 -35.18958,16.933343 19.91514,-21.099289 z"
                       id="path5914"
                       inkscape:connector-curvature="0"
                       sodipodi:nodetypes="cccc" />
                    <path
                       style="fill:#000000;fill-opacity:0.09803922;fill-rule:evenodd;stroke:none;stroke-width:0.26458332px;stroke-linecap:butt;stroke-linejoin:miter;stroke-opacity:1"
                       d="m -205.82879,78.565068 -28.38186,12.98879 -0.86555,-12.16572 19.90773,-21.091436 z"
                       id="path5916"
                       inkscape:connector-curvature="0"
                       sodipodi:nodetypes="ccccc" />
                    <path
                       style="fill:#000000;fill-opacity:0.09803922;fill-rule:evenodd;stroke:none;stroke-width:0.26458332px;stroke-linecap:butt;stroke-linejoin:miter;stroke-opacity:1"
                       d="m -226.21266,93.675628 -6.48229,19.182302 -2.38125,-33.469792 z"
                       id="path5918"
                       inkscape:connector-curvature="0"
                       sodipodi:nodetypes="cccc" />
                    <path
                       style="fill:#000000;fill-opacity:0.09803922;fill-rule:evenodd;stroke:none;stroke-width:0.26458332px;stroke-linecap:butt;stroke-linejoin:miter;stroke-opacity:1"
                       d="m -226.34495,93.807928 -7.8657,-2.25407 -0.86554,-12.165712 z"
                       id="path5920"
                       inkscape:connector-curvature="0"
                       sodipodi:nodetypes="cccc" />
                  </g>
                  <path
                     sodipodi:nodetypes="cc"
                     inkscape:connector-curvature="0"
                     id="path5924"
                     d="m -225.3919,77.82308 40.76032,-43.183911"
                     style="fill:none;fill-rule:evenodd;stroke:#000000;stroke-width:0.26458332px;stroke-linecap:butt;stroke-linejoin:miter;stroke-opacity:1" />
                </g>
              </g>
              <g
                 id="g5970"
                 transform="rotate(-45,103.29906,155.7733)">
                <g
                   id="g5948"
                   transform="rotate(-20.453314,-8.6431656,-757.78666)">
                  <g
                     id="g5944"
                     transform="translate(1.4967085,7.1093695)">
                    <path
                       style="fill:#000000;fill-opacity:0.09803922;fill-rule:evenodd;stroke:none;stroke-width:0.26458332px;stroke-linecap:butt;stroke-linejoin:miter;stroke-opacity:1"
                       d="m -186.12829,27.529799 -38.36459,102.658331 -8.20208,-17.3302 -2.38125,-33.469787 z"
                       id="path5930"
                       inkscape:connector-curvature="0"
                       sodipodi:nodetypes="ccccc" />
                    <path
                       style="fill:#000000;fill-opacity:0.09803922;fill-rule:evenodd;stroke:none;stroke-width:0.26458332px;stroke-linecap:butt;stroke-linejoin:miter;stroke-opacity:1"
                       d="m -219.0559,77.9502 1.31509,34.17034 -6.75207,18.06759 -8.20208,-17.3302 -2.38125,-33.46979 8.1876,-8.67443 z"
                       id="path5932"
                       inkscape:connector-curvature="0"
                       sodipodi:nodetypes="ccccccc" />
                    <path
                       style="fill:#000000;fill-opacity:0.09803922;fill-rule:evenodd;stroke:none;stroke-width:0.26458332px;stroke-linecap:butt;stroke-linejoin:miter;stroke-opacity:0.09803922"
                       d="m -186.12829,27.529799 -13.75833,34.924996 -35.18958,16.933343 z"
                       id="path5934"
                       inkscape:connector-curvature="0"
                       sodipodi:nodetypes="cccc" />
                    <path
                       style="fill:#000000;fill-opacity:0.09803922;fill-rule:evenodd;stroke:none;stroke-width:0.26499999;stroke-linecap:butt;stroke-linejoin:miter;stroke-miterlimit:4;stroke-dasharray:none;stroke-opacity:1"
                       d="m -199.88662,62.454795 -35.18958,16.933343 19.91514,-21.099289 z"
                       id="path5936"
                       inkscape:connector-curvature="0"
                       sodipodi:nodetypes="cccc" />
                    <path
                       style="fill:#000000;fill-opacity:0.09803922;fill-rule:evenodd;stroke:none;stroke-width:0.26458332px;stroke-linecap:butt;stroke-linejoin:miter;stroke-opacity:1"
                       d="m -205.82879,78.565068 -28.38186,12.98879 -0.86555,-12.16572 19.90773,-21.091436 z"
                       id="path5938"
                       inkscape:connector-curvature="0"
                       sodipodi:nodetypes="ccccc" />
                    <path
                       style="fill:#000000;fill-opacity:0.09803922;fill-rule:evenodd;stroke:none;stroke-width:0.26458332px;stroke-linecap:butt;stroke-linejoin:miter;stroke-opacity:1"
                       d="m -226.21266,93.675628 -6.48229,19.182302 -2.38125,-33.469792 z"
                       id="path5940"
                       inkscape:connector-curvature="0"
                       sodipodi:nodetypes="cccc" />
                    <path
                       style="fill:#000000;fill-opacity:0.09803922;fill-rule:evenodd;stroke:none;stroke-width:0.26458332px;stroke-linecap:butt;stroke-linejoin:miter;stroke-opacity:1"
                       d="m -226.34495,93.807928 -7.8657,-2.25407 -0.86554,-12.165712 z"
                       id="path5942"
                       inkscape:connector-curvature="0"
                       sodipodi:nodetypes="cccc" />
                  </g>
                  <path
                     sodipodi:nodetypes="cc"
                     inkscape:connector-curvature="0"
                     id="path5946"
                     d="m -225.3919,77.82308 40.76032,-43.183911"
                     style="fill:none;fill-rule:evenodd;stroke:#000000;stroke-width:0.26458332px;stroke-linecap:butt;stroke-linejoin:miter;stroke-opacity:1" />
                </g>
                <g
                   transform="matrix(-0.90962307,0.41543457,0.41543457,0.90962307,-156.58153,123.52465)"
                   id="g5968">
                  <g
                     transform="translate(1.4967085,7.1093695)"
                     id="g5964">
                    <path
                       sodipodi:nodetypes="ccccc"
                       inkscape:connector-curvature="0"
                       id="path5950"
                       d="m -186.12829,27.529799 -38.36459,102.658331 -8.20208,-17.3302 -2.38125,-33.469787 z"
                       style="fill:#000000;fill-opacity:0.09803922;fill-rule:evenodd;stroke:none;stroke-width:0.26458332px;stroke-linecap:butt;stroke-linejoin:miter;stroke-opacity:1" />
                    <path
                       sodipodi:nodetypes="ccccccc"
                       inkscape:connector-curvature="0"
                       id="path5952"
                       d="m -219.0559,77.9502 1.31509,34.17034 -6.75207,18.06759 -8.20208,-17.3302 -2.38125,-33.46979 8.1876,-8.67443 z"
                       style="fill:#000000;fill-opacity:0.09803922;fill-rule:evenodd;stroke:none;stroke-width:0.26458332px;stroke-linecap:butt;stroke-linejoin:miter;stroke-opacity:1" />
                    <path
                       sodipodi:nodetypes="cccc"
                       inkscape:connector-curvature="0"
                       id="path5954"
                       d="m -186.12829,27.529799 -13.75833,34.924996 -35.18958,16.933343 z"
                       style="fill:#000000;fill-opacity:0.09803922;fill-rule:evenodd;stroke:none;stroke-width:0.26458332px;stroke-linecap:butt;stroke-linejoin:miter;stroke-opacity:0.09803922" />
                    <path
                       sodipodi:nodetypes="cccc"
                       inkscape:connector-curvature="0"
                       id="path5956"
                       d="m -199.88662,62.454795 -35.18958,16.933343 19.91514,-21.099289 z"
                       style="fill:#000000;fill-opacity:0.09803922;fill-rule:evenodd;stroke:none;stroke-width:0.26499999;stroke-linecap:butt;stroke-linejoin:miter;stroke-miterlimit:4;stroke-dasharray:none;stroke-opacity:1" />
                    <path
                       sodipodi:nodetypes="ccccc"
                       inkscape:connector-curvature="0"
                       id="path5958"
                       d="m -205.82879,78.565068 -28.38186,12.98879 -0.86555,-12.16572 19.90773,-21.091436 z"
                       style="fill:#000000;fill-opacity:0.09803922;fill-rule:evenodd;stroke:none;stroke-width:0.26458332px;stroke-linecap:butt;stroke-linejoin:miter;stroke-opacity:1" />
                    <path
                       sodipodi:nodetypes="cccc"
                       inkscape:connector-curvature="0"
                       id="path5960"
                       d="m -226.21266,93.675628 -6.48229,19.182302 -2.38125,-33.469792 z"
                       style="fill:#000000;fill-opacity:0.09803922;fill-rule:evenodd;stroke:none;stroke-width:0.26458332px;stroke-linecap:butt;stroke-linejoin:miter;stroke-opacity:1" />
                    <path
                       sodipodi:nodetypes="cccc"
                       inkscape:connector-curvature="0"
                       id="path5962"
                       d="m -226.34495,93.807928 -7.8657,-2.25407 -0.86554,-12.165712 z"
                       style="fill:#000000;fill-opacity:0.09803922;fill-rule:evenodd;stroke:none;stroke-width:0.26458332px;stroke-linecap:butt;stroke-linejoin:miter;stroke-opacity:1" />
                  </g>
                  <path
                     style="fill:none;fill-rule:evenodd;stroke:#000000;stroke-width:0.26458332px;stroke-linecap:butt;stroke-linejoin:miter;stroke-opacity:1"
                     d="m -225.3919,77.82308 40.76032,-43.183911"
                     id="path5966"
                     inkscape:connector-curvature="0"
                     sodipodi:nodetypes="cc" />
                </g>
              </g>
            </g>
            <g
               transform="matrix(-1,0,0,1,206.59812,-4.5607017e-6)"
               id="g6058">
              <g
                 id="g6014">
                <g
                   id="g5992"
                   transform="rotate(-20.453314,-8.6431656,-757.78666)">
                  <g
                     id="g5988"
                     transform="translate(1.4967085,7.1093695)">
                    <path
                       style="fill:#000000;fill-opacity:0.09803922;fill-rule:evenodd;stroke:none;stroke-width:0.26458332px;stroke-linecap:butt;stroke-linejoin:miter;stroke-opacity:1"
                       d="m -186.12829,27.529799 -38.36459,102.658331 -8.20208,-17.3302 -2.38125,-33.469787 z"
                       id="path5974"
                       inkscape:connector-curvature="0"
                       sodipodi:nodetypes="ccccc" />
                    <path
                       style="fill:#000000;fill-opacity:0.09803922;fill-rule:evenodd;stroke:none;stroke-width:0.26458332px;stroke-linecap:butt;stroke-linejoin:miter;stroke-opacity:1"
                       d="m -219.0559,77.9502 1.31509,34.17034 -6.75207,18.06759 -8.20208,-17.3302 -2.38125,-33.46979 8.1876,-8.67443 z"
                       id="path5976"
                       inkscape:connector-curvature="0"
                       sodipodi:nodetypes="ccccccc" />
                    <path
                       style="fill:#000000;fill-opacity:0.09803922;fill-rule:evenodd;stroke:none;stroke-width:0.26458332px;stroke-linecap:butt;stroke-linejoin:miter;stroke-opacity:0.09803922"
                       d="m -186.12829,27.529799 -13.75833,34.924996 -35.18958,16.933343 z"
                       id="path5978"
                       inkscape:connector-curvature="0"
                       sodipodi:nodetypes="cccc" />
                    <path
                       style="fill:#000000;fill-opacity:0.09803922;fill-rule:evenodd;stroke:none;stroke-width:0.26499999;stroke-linecap:butt;stroke-linejoin:miter;stroke-miterlimit:4;stroke-dasharray:none;stroke-opacity:1"
                       d="m -199.88662,62.454795 -35.18958,16.933343 19.91514,-21.099289 z"
                       id="path5980"
                       inkscape:connector-curvature="0"
                       sodipodi:nodetypes="cccc" />
                    <path
                       style="fill:#000000;fill-opacity:0.09803922;fill-rule:evenodd;stroke:none;stroke-width:0.26458332px;stroke-linecap:butt;stroke-linejoin:miter;stroke-opacity:1"
                       d="m -205.82879,78.565068 -28.38186,12.98879 -0.86555,-12.16572 19.90773,-21.091436 z"
                       id="path5982"
                       inkscape:connector-curvature="0"
                       sodipodi:nodetypes="ccccc" />
                    <path
                       style="fill:#000000;fill-opacity:0.09803922;fill-rule:evenodd;stroke:none;stroke-width:0.26458332px;stroke-linecap:butt;stroke-linejoin:miter;stroke-opacity:1"
                       d="m -226.21266,93.675628 -6.48229,19.182302 -2.38125,-33.469792 z"
                       id="path5984"
                       inkscape:connector-curvature="0"
                       sodipodi:nodetypes="cccc" />
                    <path
                       style="fill:#000000;fill-opacity:0.09803922;fill-rule:evenodd;stroke:none;stroke-width:0.26458332px;stroke-linecap:butt;stroke-linejoin:miter;stroke-opacity:1"
                       d="m -226.34495,93.807928 -7.8657,-2.25407 -0.86554,-12.165712 z"
                       id="path5986"
                       inkscape:connector-curvature="0"
                       sodipodi:nodetypes="cccc" />
                  </g>
                  <path
                     sodipodi:nodetypes="cc"
                     inkscape:connector-curvature="0"
                     id="path5990"
                     d="m -225.3919,77.82308 40.76032,-43.183911"
                     style="fill:none;fill-rule:evenodd;stroke:#000000;stroke-width:0.26458332px;stroke-linecap:butt;stroke-linejoin:miter;stroke-opacity:1" />
                </g>
                <g
                   transform="matrix(-0.90962307,0.41543457,0.41543457,0.90962307,-156.58153,123.52465)"
                   id="g6012">
                  <g
                     transform="translate(1.4967085,7.1093695)"
                     id="g6008">
                    <path
                       sodipodi:nodetypes="ccccc"
                       inkscape:connector-curvature="0"
                       id="path5994"
                       d="m -186.12829,27.529799 -38.36459,102.658331 -8.20208,-17.3302 -2.38125,-33.469787 z"
                       style="fill:#000000;fill-opacity:0.09803922;fill-rule:evenodd;stroke:none;stroke-width:0.26458332px;stroke-linecap:butt;stroke-linejoin:miter;stroke-opacity:1" />
                    <path
                       sodipodi:nodetypes="ccccccc"
                       inkscape:connector-curvature="0"
                       id="path5996"
                       d="m -219.0559,77.9502 1.31509,34.17034 -6.75207,18.06759 -8.20208,-17.3302 -2.38125,-33.46979 8.1876,-8.67443 z"
                       style="fill:#000000;fill-opacity:0.09803922;fill-rule:evenodd;stroke:none;stroke-width:0.26458332px;stroke-linecap:butt;stroke-linejoin:miter;stroke-opacity:1" />
                    <path
                       sodipodi:nodetypes="cccc"
                       inkscape:connector-curvature="0"
                       id="path5998"
                       d="m -186.12829,27.529799 -13.75833,34.924996 -35.18958,16.933343 z"
                       style="fill:#000000;fill-opacity:0.09803922;fill-rule:evenodd;stroke:none;stroke-width:0.26458332px;stroke-linecap:butt;stroke-linejoin:miter;stroke-opacity:0.09803922" />
                    <path
                       sodipodi:nodetypes="cccc"
                       inkscape:connector-curvature="0"
                       id="path6000"
                       d="m -199.88662,62.454795 -35.18958,16.933343 19.91514,-21.099289 z"
                       style="fill:#000000;fill-opacity:0.09803922;fill-rule:evenodd;stroke:none;stroke-width:0.26499999;stroke-linecap:butt;stroke-linejoin:miter;stroke-miterlimit:4;stroke-dasharray:none;stroke-opacity:1" />
                    <path
                       sodipodi:nodetypes="ccccc"
                       inkscape:connector-curvature="0"
                       id="path6002"
                       d="m -205.82879,78.565068 -28.38186,12.98879 -0.86555,-12.16572 19.90773,-21.091436 z"
                       style="fill:#000000;fill-opacity:0.09803922;fill-rule:evenodd;stroke:none;stroke-width:0.26458332px;stroke-linecap:butt;stroke-linejoin:miter;stroke-opacity:1" />
                    <path
                       sodipodi:nodetypes="cccc"
                       inkscape:connector-curvature="0"
                       id="path6004"
                       d="m -226.21266,93.675628 -6.48229,19.182302 -2.38125,-33.469792 z"
                       style="fill:#000000;fill-opacity:0.09803922;fill-rule:evenodd;stroke:none;stroke-width:0.26458332px;stroke-linecap:butt;stroke-linejoin:miter;stroke-opacity:1" />
                    <path
                       sodipodi:nodetypes="cccc"
                       inkscape:connector-curvature="0"
                       id="path6006"
                       d="m -226.34495,93.807928 -7.8657,-2.25407 -0.86554,-12.165712 z"
                       style="fill:#000000;fill-opacity:0.09803922;fill-rule:evenodd;stroke:none;stroke-width:0.26458332px;stroke-linecap:butt;stroke-linejoin:miter;stroke-opacity:1" />
                  </g>
                  <path
                     style="fill:none;fill-rule:evenodd;stroke:#000000;stroke-width:0.26458332px;stroke-linecap:butt;stroke-linejoin:miter;stroke-opacity:1"
                     d="m -225.3919,77.82308 40.76032,-43.183911"
                     id="path6010"
                     inkscape:connector-curvature="0"
                     sodipodi:nodetypes="cc" />
                </g>
              </g>
              <g
                 transform="rotate(-45,103.29906,155.7733)"
                 id="g6056">
                <g
                   transform="rotate(-20.453314,-8.6431656,-757.78666)"
                   id="g6034">
                  <g
                     transform="translate(1.4967085,7.1093695)"
                     id="g6030">
                    <path
                       sodipodi:nodetypes="ccccc"
                       inkscape:connector-curvature="0"
                       id="path6016"
                       d="m -186.12829,27.529799 -38.36459,102.658331 -8.20208,-17.3302 -2.38125,-33.469787 z"
                       style="fill:#000000;fill-opacity:0.09803922;fill-rule:evenodd;stroke:none;stroke-width:0.26458332px;stroke-linecap:butt;stroke-linejoin:miter;stroke-opacity:1" />
                    <path
                       sodipodi:nodetypes="ccccccc"
                       inkscape:connector-curvature="0"
                       id="path6018"
                       d="m -219.0559,77.9502 1.31509,34.17034 -6.75207,18.06759 -8.20208,-17.3302 -2.38125,-33.46979 8.1876,-8.67443 z"
                       style="fill:#000000;fill-opacity:0.09803922;fill-rule:evenodd;stroke:none;stroke-width:0.26458332px;stroke-linecap:butt;stroke-linejoin:miter;stroke-opacity:1" />
                    <path
                       sodipodi:nodetypes="cccc"
                       inkscape:connector-curvature="0"
                       id="path6020"
                       d="m -186.12829,27.529799 -13.75833,34.924996 -35.18958,16.933343 z"
                       style="fill:#000000;fill-opacity:0.09803922;fill-rule:evenodd;stroke:none;stroke-width:0.26458332px;stroke-linecap:butt;stroke-linejoin:miter;stroke-opacity:0.09803922" />
                    <path
                       sodipodi:nodetypes="cccc"
                       inkscape:connector-curvature="0"
                       id="path6022"
                       d="m -199.88662,62.454795 -35.18958,16.933343 19.91514,-21.099289 z"
                       style="fill:#000000;fill-opacity:0.09803922;fill-rule:evenodd;stroke:none;stroke-width:0.26499999;stroke-linecap:butt;stroke-linejoin:miter;stroke-miterlimit:4;stroke-dasharray:none;stroke-opacity:1" />
                    <path
                       sodipodi:nodetypes="ccccc"
                       inkscape:connector-curvature="0"
                       id="path6024"
                       d="m -205.82879,78.565068 -28.38186,12.98879 -0.86555,-12.16572 19.90773,-21.091436 z"
                       style="fill:#000000;fill-opacity:0.09803922;fill-rule:evenodd;stroke:none;stroke-width:0.26458332px;stroke-linecap:butt;stroke-linejoin:miter;stroke-opacity:1" />
                    <path
                       sodipodi:nodetypes="cccc"
                       inkscape:connector-curvature="0"
                       id="path6026"
                       d="m -226.21266,93.675628 -6.48229,19.182302 -2.38125,-33.469792 z"
                       style="fill:#000000;fill-opacity:0.09803922;fill-rule:evenodd;stroke:none;stroke-width:0.26458332px;stroke-linecap:butt;stroke-linejoin:miter;stroke-opacity:1" />
                    <path
                       sodipodi:nodetypes="cccc"
                       inkscape:connector-curvature="0"
                       id="path6028"
                       d="m -226.34495,93.807928 -7.8657,-2.25407 -0.86554,-12.165712 z"
                       style="fill:#000000;fill-opacity:0.09803922;fill-rule:evenodd;stroke:none;stroke-width:0.26458332px;stroke-linecap:butt;stroke-linejoin:miter;stroke-opacity:1" />
                  </g>
                  <path
                     style="fill:none;fill-rule:evenodd;stroke:#000000;stroke-width:0.26458332px;stroke-linecap:butt;stroke-linejoin:miter;stroke-opacity:1"
                     d="m -225.3919,77.82308 40.76032,-43.183911"
                     id="path6032"
                     inkscape:connector-curvature="0"
                     sodipodi:nodetypes="cc" />
                </g>
                <g
                   id="g6054"
                   transform="matrix(-0.90962307,0.41543457,0.41543457,0.90962307,-156.58153,123.52465)">
                  <g
                     id="g6050"
                     transform="translate(1.4967085,7.1093695)">
                    <path
                       style="fill:#000000;fill-opacity:0.09803922;fill-rule:evenodd;stroke:none;stroke-width:0.26458332px;stroke-linecap:butt;stroke-linejoin:miter;stroke-opacity:1"
                       d="m -186.12829,27.529799 -38.36459,102.658331 -8.20208,-17.3302 -2.38125,-33.469787 z"
                       id="path6036"
                       inkscape:connector-curvature="0"
                       sodipodi:nodetypes="ccccc" />
                    <path
                       style="fill:#000000;fill-opacity:0.09803922;fill-rule:evenodd;stroke:none;stroke-width:0.26458332px;stroke-linecap:butt;stroke-linejoin:miter;stroke-opacity:1"
                       d="m -219.0559,77.9502 1.31509,34.17034 -6.75207,18.06759 -8.20208,-17.3302 -2.38125,-33.46979 8.1876,-8.67443 z"
                       id="path6038"
                       inkscape:connector-curvature="0"
                       sodipodi:nodetypes="ccccccc" />
                    <path
                       style="fill:#000000;fill-opacity:0.09803922;fill-rule:evenodd;stroke:none;stroke-width:0.26458332px;stroke-linecap:butt;stroke-linejoin:miter;stroke-opacity:0.09803922"
                       d="m -186.12829,27.529799 -13.75833,34.924996 -35.18958,16.933343 z"
                       id="path6040"
                       inkscape:connector-curvature="0"
                       sodipodi:nodetypes="cccc" />
                    <path
                       style="fill:#000000;fill-opacity:0.09803922;fill-rule:evenodd;stroke:none;stroke-width:0.26499999;stroke-linecap:butt;stroke-linejoin:miter;stroke-miterlimit:4;stroke-dasharray:none;stroke-opacity:1"
                       d="m -199.88662,62.454795 -35.18958,16.933343 19.91514,-21.099289 z"
                       id="path6042"
                       inkscape:connector-curvature="0"
                       sodipodi:nodetypes="cccc" />
                    <path
                       style="fill:#000000;fill-opacity:0.09803922;fill-rule:evenodd;stroke:none;stroke-width:0.26458332px;stroke-linecap:butt;stroke-linejoin:miter;stroke-opacity:1"
                       d="m -205.82879,78.565068 -28.38186,12.98879 -0.86555,-12.16572 19.90773,-21.091436 z"
                       id="path6044"
                       inkscape:connector-curvature="0"
                       sodipodi:nodetypes="ccccc" />
                    <path
                       style="fill:#000000;fill-opacity:0.09803922;fill-rule:evenodd;stroke:none;stroke-width:0.26458332px;stroke-linecap:butt;stroke-linejoin:miter;stroke-opacity:1"
                       d="m -226.21266,93.675628 -6.48229,19.182302 -2.38125,-33.469792 z"
                       id="path6046"
                       inkscape:connector-curvature="0"
                       sodipodi:nodetypes="cccc" />
                    <path
                       style="fill:#000000;fill-opacity:0.09803922;fill-rule:evenodd;stroke:none;stroke-width:0.26458332px;stroke-linecap:butt;stroke-linejoin:miter;stroke-opacity:1"
                       d="m -226.34495,93.807928 -7.8657,-2.25407 -0.86554,-12.165712 z"
                       id="path6048"
                       inkscape:connector-curvature="0"
                       sodipodi:nodetypes="cccc" />
                  </g>
                  <path
                     sodipodi:nodetypes="cc"
                     inkscape:connector-curvature="0"
                     id="path6052"
                     d="m -225.3919,77.82308 40.76032,-43.183911"
                     style="fill:none;fill-rule:evenodd;stroke:#000000;stroke-width:0.26458332px;stroke-linecap:butt;stroke-linejoin:miter;stroke-opacity:1" />
                </g>
              </g>
            </g>
          </g>
        </g>
      </g>
    </g>
    <path
       style="fill:#000000;fill-rule:evenodd;stroke:#000000;stroke-width:0.5;stroke-linecap:butt;stroke-linejoin:miter;stroke-miterlimit:4;stroke-dasharray:none;stroke-opacity:1;marker-start:url(#StopL);marker-end:url(#marker22663)"
       d="m 149.11594,-112.50695 30.14445,21.393725"
       id="path22639"
       inkscape:connector-curvature="0"
       inkscape:transform-center-x="19.446875"
       inkscape:transform-center-y="-9.2604134" />
    <text
       xml:space="preserve"
       style="font-style:normal;font-variant:normal;font-weight:normal;font-stretch:normal;font-size:3.07897496px;line-height:230.92314148px;font-family:Delicious;-inkscape-font-specification:Delicious;letter-spacing:0px;word-spacing:0px;fill:#000000;fill-opacity:1;stroke:none;stroke-width:0.26458332px;stroke-linecap:butt;stroke-linejoin:miter;stroke-opacity:1"
       x="68.325378"
       y="-174.14149"
       id="text23882"
       transform="matrix(0.81651457,0.57868388,-0.58145024,0.81262986,0,0)"
       inkscape:transform-center-x="19.551818"
       inkscape:transform-center-y="-9.3304536"><tspan
         sodipodi:role="line"
         id="tspan23880"
         x="68.325378"
         y="-174.14149"
         style="font-size:4.23333359px;stroke-width:0.26458332px">115cm</tspan></text>
    <g
       id="g24012"
       transform="translate(-63.109402,-57.823032)">
      <path
         inkscape:connector-curvature="0"
         id="path24003"
         d="m 158.509,-66.311357 2.86118,2.86118"
         style="fill:#ad150e;fill-rule:evenodd;stroke:#ad150e;stroke-width:0.26458332px;stroke-linecap:butt;stroke-linejoin:miter;stroke-opacity:1" />
      <path
         style="fill:#ad150e;fill-rule:evenodd;stroke:#ad150e;stroke-width:0.26499999;stroke-linecap:butt;stroke-linejoin:miter;stroke-miterlimit:4;stroke-dasharray:none;stroke-opacity:1"
         d="m 161.37018,-66.311357 -2.86118,2.86118"
         id="path24005"
         inkscape:connector-curvature="0" />
      <circle
         r="1.4305899"
         cy="-64.880768"
         cx="159.93959"
         id="path24007"
         style="color:#000000;clip-rule:nonzero;display:inline;overflow:visible;visibility:visible;opacity:1;isolation:auto;mix-blend-mode:normal;color-interpolation:sRGB;color-interpolation-filters:linearRGB;solid-color:#000000;solid-opacity:1;fill:none;fill-opacity:1;fill-rule:nonzero;stroke:#ad150e;stroke-width:0.26499999;stroke-linecap:butt;stroke-linejoin:miter;stroke-miterlimit:4;stroke-dasharray:none;stroke-dashoffset:0;stroke-opacity:1;color-rendering:auto;image-rendering:auto;shape-rendering:auto;text-rendering:auto;enable-background:accumulate" />
    </g>
    <g
       transform="translate(-63.109402,-27.06169)"
       id="g24020">
      <path
         style="fill:#ad150e;fill-rule:evenodd;stroke:#ad150e;stroke-width:0.26458332px;stroke-linecap:butt;stroke-linejoin:miter;stroke-opacity:1"
         d="m 158.509,-66.311357 2.86118,2.86118"
         id="path24014"
         inkscape:connector-curvature="0" />
      <path
         inkscape:connector-curvature="0"
         id="path24016"
         d="m 161.37018,-66.311357 -2.86118,2.86118"
         style="fill:#ad150e;fill-rule:evenodd;stroke:#ad150e;stroke-width:0.26499999;stroke-linecap:butt;stroke-linejoin:miter;stroke-miterlimit:4;stroke-dasharray:none;stroke-opacity:1" />
      <circle
         style="color:#000000;clip-rule:nonzero;display:inline;overflow:visible;visibility:visible;opacity:1;isolation:auto;mix-blend-mode:normal;color-interpolation:sRGB;color-interpolation-filters:linearRGB;solid-color:#000000;solid-opacity:1;fill:none;fill-opacity:1;fill-rule:nonzero;stroke:#ad150e;stroke-width:0.26499999;stroke-linecap:butt;stroke-linejoin:miter;stroke-miterlimit:4;stroke-dasharray:none;stroke-dashoffset:0;stroke-opacity:1;color-rendering:auto;image-rendering:auto;shape-rendering:auto;text-rendering:auto;enable-background:accumulate"
         id="circle24018"
         cx="159.93959"
         cy="-64.880768"
         r="1.4305899" />
    </g>
    <g
       transform="rotate(-90,93.100731,-46.855157)"
       id="g24588">
      <path
         style="fill:#ad150e;fill-rule:evenodd;stroke:#ad150e;stroke-width:0.26458332px;stroke-linecap:butt;stroke-linejoin:miter;stroke-opacity:1"
         d="m 158.509,-66.311357 2.86118,2.86118"
         id="path24582"
         inkscape:connector-curvature="0" />
      <path
         inkscape:connector-curvature="0"
         id="path24584"
         d="m 161.37018,-66.311357 -2.86118,2.86118"
         style="fill:#ad150e;fill-rule:evenodd;stroke:#ad150e;stroke-width:0.26499999;stroke-linecap:butt;stroke-linejoin:miter;stroke-miterlimit:4;stroke-dasharray:none;stroke-opacity:1" />
      <circle
         style="color:#000000;clip-rule:nonzero;display:inline;overflow:visible;visibility:visible;opacity:1;isolation:auto;mix-blend-mode:normal;color-interpolation:sRGB;color-interpolation-filters:linearRGB;solid-color:#000000;solid-opacity:1;fill:none;fill-opacity:1;fill-rule:nonzero;stroke:#ad150e;stroke-width:0.26499999;stroke-linecap:butt;stroke-linejoin:miter;stroke-miterlimit:4;stroke-dasharray:none;stroke-dashoffset:0;stroke-opacity:1;color-rendering:auto;image-rendering:auto;shape-rendering:auto;text-rendering:auto;enable-background:accumulate"
         id="circle24586"
         cx="159.93959"
         cy="-64.880768"
         r="1.4305899" />
    </g>
    <g
       id="g24614"
       transform="translate(-41.361361,-48.81325)">
      <path
         inkscape:connector-curvature="0"
         id="path24608"
         d="m 158.509,-66.311357 2.86118,2.86118"
         style="fill:#ad150e;fill-rule:evenodd;stroke:#ad150e;stroke-width:0.26458332px;stroke-linecap:butt;stroke-linejoin:miter;stroke-opacity:1" />
      <path
         style="fill:#ad150e;fill-rule:evenodd;stroke:#ad150e;stroke-width:0.26499999;stroke-linecap:butt;stroke-linejoin:miter;stroke-miterlimit:4;stroke-dasharray:none;stroke-opacity:1"
         d="m 161.37018,-66.311357 -2.86118,2.86118"
         id="path24610"
         inkscape:connector-curvature="0" />
      <circle
         r="1.4305899"
         cy="-64.880768"
         cx="159.93959"
         id="circle24612"
         style="color:#000000;clip-rule:nonzero;display:inline;overflow:visible;visibility:visible;opacity:1;isolation:auto;mix-blend-mode:normal;color-interpolation:sRGB;color-interpolation-filters:linearRGB;solid-color:#000000;solid-opacity:1;fill:none;fill-opacity:1;fill-rule:nonzero;stroke:#ad150e;stroke-width:0.26499999;stroke-linecap:butt;stroke-linejoin:miter;stroke-miterlimit:4;stroke-dasharray:none;stroke-dashoffset:0;stroke-opacity:1;color-rendering:auto;image-rendering:auto;shape-rendering:auto;text-rendering:auto;enable-background:accumulate" />
    </g>
    <path
       inkscape:connector-curvature="0"
       id="path24666"
       d="m 84.68746,-134.27521 -0.0277,11.44238"
       style="fill:#000000;fill-rule:evenodd;stroke:#000000;stroke-width:0.5;stroke-linecap:butt;stroke-linejoin:miter;stroke-miterlimit:4;stroke-dasharray:none;stroke-opacity:1;marker-start:url(#marker24670);marker-end:url(#marker24698)" />
    <text
       id="text26543"
       y="-127.27268"
       x="76.104179"
       style="font-style:normal;font-variant:normal;font-weight:normal;font-stretch:normal;font-size:3.52777767px;line-height:264.58334351px;font-family:Delicious;-inkscape-font-specification:Delicious;letter-spacing:0px;word-spacing:0px;fill:#000000;fill-opacity:1;stroke:none;stroke-width:0.26458332px;stroke-linecap:butt;stroke-linejoin:miter;stroke-opacity:1"
       xml:space="preserve"><tspan
         style="font-size:4.23333311px;stroke-width:0.26458332px"
         y="-127.27268"
         x="76.104179"
         id="tspan26541"
         sodipodi:role="line">7cm</tspan></text>
    <path
       style="fill:none;fill-rule:evenodd;stroke:#000000;stroke-width:0.26458332px;stroke-linecap:butt;stroke-linejoin:miter;stroke-opacity:1"
       d="m 157.37479,-114.49802 25.50418,17.859325 15.13774,-17.859325"
       id="path27230"
       inkscape:connector-curvature="0" />
    <path
       style="fill:none;fill-rule:evenodd;stroke:#000000;stroke-width:0.26458332px;stroke-linecap:butt;stroke-linejoin:miter;stroke-opacity:1"
       d="m 182.87897,-96.63869 -6.6103,-26.86911"
       id="path27232"
       inkscape:connector-curvature="0" />
    <path
       style="fill:none;fill-rule:evenodd;stroke:#000000;stroke-width:0.26458332px;stroke-linecap:butt;stroke-linejoin:miter;stroke-opacity:1"
       d="m 182.87897,-96.638689 13.14563,12.408611 -24.67136,24.861146"
       id="path27234"
       inkscape:connector-curvature="0" />
    <path
       id="path27238"
       style="fill:none;fill-rule:evenodd;stroke:#000000;stroke-width:0.26458332px;stroke-linecap:butt;stroke-linejoin:miter;stroke-opacity:1"
       d="m 196.0246,-84.230078 4.76391,0.872265 c 1.15162,0.159817 0.97627,-1.892486 0,-1.74453 l -4.76391,0.872265"
       inkscape:connector-curvature="0"
       sodipodi:nodetypes="cccc" />
    <path
       sodipodi:nodetypes="cccc"
       inkscape:connector-curvature="0"
       d="m 198.01671,-114.49802 3.68607,-3.14143 c 0.8515,-0.79166 -0.85005,-1.95245 -1.3522,-1.10224 l -2.33387,4.24367"
       style="fill:none;fill-rule:evenodd;stroke:#000000;stroke-width:0.26458332px;stroke-linecap:butt;stroke-linejoin:miter;stroke-opacity:1"
       id="path27241" />
    <path
       id="path27243"
       style="fill:none;fill-rule:evenodd;stroke:#000000;stroke-width:0.26458332px;stroke-linecap:butt;stroke-linejoin:miter;stroke-opacity:1"
       d="m 171.35324,-59.368932 -3.66982,3.160401 c -0.84741,0.796033 0.86011,1.948026 1.35787,1.095253 l 2.31195,-4.255654"
       inkscape:connector-curvature="0"
       sodipodi:nodetypes="cccc"
       inkscape:transform-center-x="1.9687199"
       inkscape:transform-center-y="2.3387014" />
    <path
       id="path27245"
       style="fill:none;fill-rule:evenodd;stroke:#000000;stroke-width:0.26458332px;stroke-linecap:butt;stroke-linejoin:miter;stroke-opacity:1"
       d="m 176.26867,-123.5078 -0.0149,-4.84309 c -0.0538,-1.16141 -2.03927,-0.61318 -1.71503,0.31948 l 1.72993,4.52361"
       inkscape:connector-curvature="0"
       sodipodi:nodetypes="cccc" />
    <path
       sodipodi:nodetypes="cccc"
       inkscape:connector-curvature="0"
       d="m 157.37479,-114.49802 -3.11782,-3.70607 c -0.7862,-0.85653 -1.95783,0.83756 -1.11086,1.34513 l 4.22868,2.36094"
       style="fill:none;fill-rule:evenodd;stroke:#000000;stroke-width:0.26458332px;stroke-linecap:butt;stroke-linejoin:miter;stroke-opacity:1"
       id="path27247" />
    <path
       inkscape:transform-center-y="-9.2604134"
       inkscape:transform-center-x="22.281502"
       inkscape:connector-curvature="0"
       id="path29973"
       d="m 96.777538,-143.04013 42.352432,0.11785"
       style="fill:#000000;fill-rule:evenodd;stroke:#000000;stroke-width:0.5;stroke-linecap:butt;stroke-linejoin:miter;stroke-miterlimit:4;stroke-dasharray:none;stroke-opacity:1;marker-start:url(#marker29992);marker-end:url(#marker30032)" />
    <text
       inkscape:transform-center-y="-9.3304536"
       inkscape:transform-center-x="19.551818"
       transform="matrix(1.000782,0.00253669,-0.00703593,0.99920077,0,0)"
       id="text29979"
       y="-145.1266"
       x="112.49789"
       style="font-style:normal;font-variant:normal;font-weight:normal;font-stretch:normal;font-size:3.07897496px;line-height:230.92314148px;font-family:Delicious;-inkscape-font-specification:Delicious;letter-spacing:0px;word-spacing:0px;fill:#000000;fill-opacity:1;stroke:none;stroke-width:0.26458332px;stroke-linecap:butt;stroke-linejoin:miter;stroke-opacity:1"
       xml:space="preserve"><tspan
         style="font-size:4.23333359px;stroke-width:0.26458332px"
         y="-145.1266"
         x="112.49789"
         id="tspan29977"
         sodipodi:role="line">60cm</tspan></text>
    <g
       id="g40192"
       transform="rotate(-90,122.15233,1.3511271)">
      <path
         inkscape:connector-curvature="0"
         id="path40186"
         d="m 158.509,-66.311357 2.86118,2.86118"
         style="fill:#ad150e;fill-rule:evenodd;stroke:#ad150e;stroke-width:0.26458332px;stroke-linecap:butt;stroke-linejoin:miter;stroke-opacity:1" />
      <path
         style="fill:#ad150e;fill-rule:evenodd;stroke:#ad150e;stroke-width:0.26499999;stroke-linecap:butt;stroke-linejoin:miter;stroke-miterlimit:4;stroke-dasharray:none;stroke-opacity:1"
         d="m 161.37018,-66.311357 -2.86118,2.86118"
         id="path40188"
         inkscape:connector-curvature="0" />
      <circle
         r="1.4305899"
         cy="-64.880768"
         cx="159.93959"
         id="circle40190"
         style="color:#000000;clip-rule:nonzero;display:inline;overflow:visible;visibility:visible;opacity:1;isolation:auto;mix-blend-mode:normal;color-interpolation:sRGB;color-interpolation-filters:linearRGB;solid-color:#000000;solid-opacity:1;fill:none;fill-opacity:1;fill-rule:nonzero;stroke:#ad150e;stroke-width:0.26499999;stroke-linecap:butt;stroke-linejoin:miter;stroke-miterlimit:4;stroke-dasharray:none;stroke-dashoffset:0;stroke-opacity:1;color-rendering:auto;image-rendering:auto;shape-rendering:auto;text-rendering:auto;enable-background:accumulate" />
    </g>
    <text
       xml:space="preserve"
       style="font-style:normal;font-variant:normal;font-weight:normal;font-stretch:normal;font-size:4.23333311px;line-height:264.58334351px;font-family:Delicious;-inkscape-font-specification:Delicious;letter-spacing:0px;word-spacing:0px;fill:#000000;fill-opacity:1;stroke:none;stroke-width:0.26458332px;stroke-linecap:butt;stroke-linejoin:miter;stroke-opacity:1"
       x="61.265724"
       y="-35.390499"
       id="text40196"><tspan
         sodipodi:role="line"
         id="tspan40194"
         x="61.265724"
         y="-35.390499"
         style="font-size:4.23333311px;stroke-width:0.26458332px">Waagpunkte</tspan></text>
    <path
       style="fill:none;fill-rule:evenodd;stroke:#000000;stroke-width:0.5;stroke-linecap:butt;stroke-linejoin:miter;stroke-miterlimit:4;stroke-dasharray:none;stroke-opacity:1;marker-start:url(#StopL-2);marker-end:url(#marker22663-4)"
       d="m 179.26039,-91.113225 c 7.36253,4.989893 11.52941,6.982225 5.26767,13.271162 l -19.65389,19.739256"
       id="path22639-1"
       inkscape:connector-curvature="0"
       inkscape:transform-center-x="19.446875"
       inkscape:transform-center-y="-9.2604134"
       sodipodi:nodetypes="csc" />
    <text
       inkscape:transform-center-y="2.7996495"
       inkscape:transform-center-x="4.2603912"
       transform="matrix(0.68404137,-0.73051932,0.72629543,0.68625551,0,0)"
       id="text8137"
       y="78.698853"
       x="163.16519"
       style="font-style:normal;font-variant:normal;font-weight:normal;font-stretch:normal;font-size:3.07897496px;line-height:230.92314148px;font-family:Delicious;-inkscape-font-specification:Delicious;letter-spacing:0px;word-spacing:0px;fill:#000000;fill-opacity:1;stroke:none;stroke-width:0.26458332px;stroke-linecap:butt;stroke-linejoin:miter;stroke-opacity:1"
       xml:space="preserve"><tspan
         style="font-size:4.23333359px;stroke-width:0.26458332px"
         y="78.698853"
         x="163.16519"
         id="tspan8135"
         sodipodi:role="line">240cm</tspan></text>
  </g>
</svg>
